…
I take a quick summary of the different classes and see the different means of
each of the working class.


```
## # A tibble: 14,459 x 3
##                                                                     head_occup
##                                                                         <fctr>
##  1                                                     Street ambulant vendors
##  2                                           Market and sidewalk stall vendors
##  3                                          Waiters, waitresses and bartenders
##  4 General managers/managing proprietors in personal care, cleaning and relati
##  5                                         Shop salespersons and demonstrators
##  6                                           Market and sidewalk stall vendors
##  7                                           Market and sidewalk stall vendors
##  8                                                         Building caretakers
##  9                                  Production supervisors and general foremen
## 10                                         Shop salespersons and demonstrators
## # ... with 14,449 more rows, and 2 more variables: income <int>,
## #   inc_entrep <int>
```
…
Both graphs shows that experts are heavily dependent on salaries. While most
groups would treat their business as a secondary source of income, office
employees and farmers would seem to have more profitable business than the rest
of the groups.


```
## # A tibble: 68,016 x 4
##       id head_class   inc_type    inc
##    <int>      <ord>      <chr>  <int>
##  1     1        gov   inc_work 435962
##  2     1        gov inc_entrep  44370
##  3     2       work   inc_work 198235
##  4     2       work inc_entrep      0
##  5     3       work   inc_work  82785
##  6     3       work inc_entrep      0
##  7     4       farm   inc_work  92009
##  8     4       farm inc_entrep  15580
##  9     5        off   inc_work 113635
## 10     5        off inc_entrep  75687
## # ... with 68,006 more rows
```
…
Splitting the graphs in a facet, it seems that all classes are resembling the
same pattern where the more income they have the higher they would spend. This
does not tell us anything new. And I get to thinking, what are they actually
spending on?


```
## # A tibble: 272,064 x 4
##       id head_class  cashflow        cash
##    <int>      <ord>    <fctr>       <dbl>
##  1     1        gov      Food 0.398710508
##  2     1        gov    Luxury 0.042562427
##  3     1        gov      Vice 0.000000000
##  4     1        gov     House 0.269154817
##  5     1        gov   Medical 0.009937078
##  6     1        gov   Farming 0.055678679
##  7     1        gov Education 0.104056179
##  8     1        gov    Living 0.119900313
##  9     2       work      Food 0.322843155
## 10     2       work    Luxury 0.056804834
## # ... with 272,054 more rows
```
…
I add the expenses overall and add it to our main table *fies* as *expense*.


```
## # A tibble: 272,064 x 5
##       id head_class income  cashflow   cash
##    <int>      <ord>  <int>     <chr>  <int>
##  1     1        gov 480332      Food 138707
##  2     1        gov 480332    Luxury  14807
##  3     1        gov 480332      Vice      0
##  4     1        gov 480332     House  93636
##  5     1        gov 480332   Medical   3457
##  6     1        gov 480332   Farming  19370
##  7     1        gov 480332 Education  36200
##  8     1        gov 480332    Living  41712
##  9     2       work 198235      Food  68712
## 10     2       work 198235    Luxury  12090
## # ... with 272,054 more rows
```
…
